\relax 
\@writefile{toc}{\contentsline {section}{\numberline {1}Module {\tt  {Testing}} : A very simple unit testing framework}{1}}
\newlabel{module:Testing}{{1}{1}}
\@writefile{toc}{\contentsline {subsection}{\numberline {1.1}Timeout handling}{1}}
\newlabel{exception:Testing.Timeout}{{1.1}{1}}
\newlabel{val:Testing.sigalrm-underscorehandler}{{1.1}{1}}
\newlabel{val:Testing.timeout}{{1.1}{1}}
\@writefile{toc}{\contentsline {subsection}{\numberline {1.2}Testing suites}{1}}
\newlabel{type:Testing.suite}{{1.2}{1}}
\newlabel{type:Testing.status}{{1.2}{1}}
\newlabel{val:Testing.status2string}{{1.2}{2}}
\newlabel{val:Testing.create-underscoresuite}{{1.2}{2}}
\newlabel{val:Testing.add-underscoretest}{{1.2}{2}}
\newlabel{val:Testing.run-underscoretests}{{1.2}{2}}
\newlabel{val:Testing.run-underscorereport}{{1.2}{2}}
\@writefile{toc}{\contentsline {subsection}{\numberline {1.3}Vocareum support}{2}}
\newlabel{val:Testing.vocareum-underscoremax-underscoreint}{{1.3}{2}}
\newlabel{val:Testing.vocareum-underscoreannounce}{{1.3}{2}}
