\relax 
\providecommand\hyper@newdestlabel[2]{}
\@setckpt{longtable}{
\setcounter{page}{1}
\setcounter{equation}{0}
\setcounter{enumi}{0}
\setcounter{enumii}{0}
\setcounter{enumiii}{0}
\setcounter{enumiv}{0}
\setcounter{footnote}{0}
\setcounter{mpfootnote}{0}
\setcounter{parentequation}{0}
\setcounter{part}{0}
\setcounter{section}{0}
\setcounter{subsection}{0}
\setcounter{subsubsection}{0}
\setcounter{paragraph}{0}
\setcounter{subparagraph}{0}
\setcounter{figure}{0}
\setcounter{table}{0}
\setcounter{Item}{0}
\setcounter{Hfootnote}{0}
\setcounter{bookmark@seq@number}{0}
\setcounter{lstnumber}{1}
\setcounter{FancyVerbLine}{0}
\setcounter{float@type}{8}
\setcounter{linenumber}{1}
\setcounter{LN@truepage}{0}
\setcounter{FancyVerbLineBreakLast}{0}
\setcounter{minted@FancyVerbLineTemp}{0}
\setcounter{listing}{0}
\setcounter{ContinuedFloat}{0}
\setcounter{enums}{0}
\setcounter{tempcnt}{0}
\setcounter{enumsi}{0}
\setcounter{NAT@ctr}{0}
\setcounter{theorem}{0}
\setcounter{probleminternal}{0}
}
