\relax 
\providecommand\hyper@newdestlabel[2]{}
\providecommand\HyperFirstAtBeginDocument{\AtBeginDocument}
\HyperFirstAtBeginDocument{\ifx\hyper@anchor\@undefined
\global\let\oldcontentsline\contentsline
\gdef\contentsline#1#2#3#4{\oldcontentsline{#1}{#2}{#3}}
\global\let\oldnewlabel\newlabel
\gdef\newlabel#1#2{\newlabelxx{#1}#2}
\gdef\newlabelxx#1#2#3#4#5#6{\oldnewlabel{#1}{{#2}{#3}}}
\AtEndDocument{\ifx\hyper@anchor\@undefined
\let\contentsline\oldcontentsline
\let\newlabel\oldnewlabel
\fi}
\fi}
\global\let\hyper@last\relax 
\gdef\HyperFirstAtBeginDocument#1{#1}
\providecommand\HyField@AuxAddToFields[1]{}
\providecommand\HyField@AuxAddToCoFields[2]{}
\catcode 95\active
\@writefile{toc}{\contentsline {section}{\tocsection {}{1}{Introduction}}{1}{section.1}}
\@writefile{toc}{\contentsline {section}{\tocsection {}{2}{Partners}}{1}{section.2}}
\@writefile{toc}{\contentsline {section}{\tocsection {}{3}{Part 1 (5 Points + 1 Challenge point)}}{2}{section.3}}
\@writefile{toc}{\contentsline {section}{\tocsection {}{4}{Part 1.5 (0 Points)}}{2}{section.4}}
\@writefile{toc}{\contentsline {section}{\tocsection {}{5}{Part 3 (10 Points)}}{2}{section.5}}
\gdef \LT@i {\LT@entry 
    {3}{148.51717pt}\LT@entry 
    {3}{148.51717pt}}
\newlabel{add}{{5.1}{4}{\texorpdfstring {\emph {add}:}{add:}}{subsection.5.1}{}}
\@writefile{toc}{\contentsline {subsection}{\tocsubsection {}{5.1}{\emph  {add}:}}{4}{subsection.5.1}}
\newlabel{take}{{5.2}{4}{\texorpdfstring {\emph {take}:}{take:}}{subsection.5.2}{}}
\@writefile{toc}{\contentsline {subsection}{\tocsubsection {}{5.2}{\emph  {take}:}}{4}{subsection.5.2}}
\newlabel{tocindent-1}{0pt}
\newlabel{tocindent0}{0pt}
\newlabel{tocindent1}{22.5pt}
\newlabel{tocindent2}{0pt}
\newlabel{tocindent3}{0pt}
\gdef\minted@oldcachelist{,
  default.pygstyle,
  bw.pygstyle}
\@writefile{toc}{\contentsline {section}{\tocsection {}{6}{Part N.1 (Challenge, 2 points)}}{5}{section.6}}
\newlabel{part-n.1-challenge-2-points}{{6}{5}{Part N.1 (Challenge, 2 points)}{section.6}{}}
\@writefile{toc}{\contentsline {section}{\tocsection {}{7}{Part N.2 (Challenge, 2 points)}}{5}{section.7}}
\newlabel{part-n.2-challenge-2-points}{{7}{5}{Part N.2 (Challenge, 2 points)}{section.7}{}}
\@writefile{toc}{\contentsline {section}{\tocsection {}{8}{Submit!}}{5}{section.8}}
\newlabel{submit}{{8}{5}{Submit!}{section.8}{}}
