\contentsline {section}{\numberline {1}Module {\tt {Testing}} : A very simple unit testing framework}{1}
\contentsline {subsection}{\numberline {1.1}Timeout handling}{1}
\contentsline {subsection}{\numberline {1.2}Testing suites}{1}
\contentsline {subsection}{\numberline {1.3}Vocareum support}{2}
