first_name,last_name,email,assignment,location,tf,tfemail
Chhokra,Shub,schhokra@college.harvard.edu,Monday 7-8 p.m.,Pierce 100F,Gabriela Merz,gmerz@college.harvard.edu
Bujaroski,Filip,fbujaroski@college.harvard.edu,Monday 2-3 p.m.,Pierce 209,Victor Domene,victordomene@college.harvard.edu
Cruz,Andreas,andreascruz@college.harvard.edu,Monday 7-8 p.m.,Pierce 100F,Gabriela Merz,gmerz@college.harvard.edu