email, graduated
aarongrahamhorowitz@college.harvard.edu, y
abuchholtzau@college.harvard.edu, y
behlum@college.harvard.edu, y
ben@cs.harvard.edu, y
danallan@cs.harvard.edu, n/a
daven.farnham@gmail.com, n/a
dcruz@college.harvard.edu, n (senior)
dzhou@college.harvard.edu, n (senior)
ehoulihan@college.harvard.edu, n (junior on staff)
eouyang@college.harvard.edu, n (junior)
fwidjaja@college.harvard.edu, n (junior)
iannightingale@college.harvard.edu, y
jeffersonlee@college.harvard.edu, n (senior)
josephbooth@college.harvard.edu, y
karashen@college.harvard.edu, n (senior)
kirk.m.goff@gmail.com, n/a
lutongwang@college.harvard.edu, n (senior not available)
marcuspowers@college.harvard.edu, n (junior not available)
maxmaclaren@gmail.com, n/a
nlarusstone@college.harvard.edu, n (junior not available)
nmahlangu@college.harvard.edu, n (senior)
obabarinsa@college.harvard.edu, y
peterku@college.harvard.edu, n (senior)
pkraft@college.harvard.edu, n (junior but poor q scores)
samuelgreen@college.harvard.edu, n (junior on staff)
stefanrajkovic@college.harvard.edu, n (junior on staff)
thomasjiang@college.harvard.edu, n (junior)
williamcox@college.harvard.edu, n (junior)
zchauvin@college.harvard.edu, n (junior on staff)