"","Student","Question.1","Question.2","Question.3","Question.4","Question.5","Question.6","Total"
"12","Alley, Ethan",20,15,25,15,3,18,96
"29","Bembenek, Aaron",21,15,25,15,5,19,100
"30","Benson, Arianna",21,15,25,15,0,18,94
"37","Bunin, Ivan",21,15,25,15,0,15,91
"45","Cen, Raymond",21,12,25,15,0,18,91
"52","Chase, Harrison",21,15,25,15,0,15,91
"55","Chen, Robert",21,15,25,15,0,18,94
"57","Cho, William",20,15,25,15,0,16,91
"58","Choi, Derek",21,15,25,15,0,19,95
"81","El Messiri, Essam",21,13,25,15,5,13,92
"96","Friberg, Alexander",21,15,25,15,0,17,93
"101","Galuszka, Piotr",21,15,25,15,0,17,93
"103","Gawlik, Simon",20,15,25,10,5,17,92
"112","Goldberg, Lydia",21,15,25,15,0,19,95
"114","Goodman, Jason",21,15,25,15,3,15,94
"119","Grand, Gabriel",21,15,25,15,0,19,95
"126","Hale, Mason",21,15,20,15,5,18,94
"135","Hickman, Peter",20,15,20,15,3,19,92
"138","Hoechst, Grant",21,15,25,15,0,19,95
"141","Hu, Jennifer",21,12,25,15,0,18,91
"146","Huang, Phillip",21,15,25,15,5,19,100
"159","Jiang, Jimmy",17,15,25,15,3,17,92
"169","Kang, Amy",21,15,25,15,0,17,93
"178","Kim, Hana",21,15,25,15,0,15,91
"192","Kwartler, Joel",19,15,20,15,5,19,93
"204","Li, Shangyan",21,15,25,15,0,17,93
"210","Lin, Jimmy",21,12,25,15,3,16,92
"213","Liu, Anna",20,15,25,15,0,19,94
"219","Long, Will",21,15,25,15,0,17,93
"220","Loughlin, Kevin",19,15,25,15,0,19,93
"225","Ma, Angela",18,15,25,15,5,18,96
"229","Makelov, Aleksandar",21,15,25,15,0,15,91
"230","Makihara, Kazuma",20,15,25,15,0,16,91
"234","Martin, Walter",21,13,25,15,3,15,92
"246","Mehta, Neel",21,15,25,15,5,19,100
"247","Meier, Joshua",20,15,25,15,0,17,92
"269","Nguyen, Andre",21,15,25,15,0,15,91
"280","Otness, Karl",20,12,25,15,5,17,94
"300","Raymond, Randall",21,15,25,15,0,18,94
"309","Saini, Akshay",20,15,25,15,5,19,99
"314","Schroeder, Luca",21,15,25,15,3,19,98
"316","Sha, Raahil",21,15,25,15,0,16,92
"320","Shaw, Robert",21,15,25,15,0,19,95
"328","Sobel, Ben",21,13,25,15,0,19,93
"331","Song, Ryan",19,15,25,15,0,18,92
"339","Szanto, Aron",21,15,25,15,0,17,93
"341","Tamm, Timothy",20,12,25,15,5,17,94
"345","Tang, Alice",18,15,25,15,0,19,92
"355","Turcu, Denis",21,15,25,15,0,16,92
"370","Wang, Haoqing",21,15,25,15,0,15,91
"388","Woodin, Wendy",17,15,25,15,0,19,91
"401","Zatsiorsky, James",20,15,25,10,5,19,94
"404","Zhang, George",21,15,25,15,0,17,93
"415","Zigmond, Ezra",20,15,25,15,5,19,99
"416","Zou, Cindy",19,15,25,15,0,19,93
