studentid,name,email
60908052,"Abrahams,Alexandra",abrahams@college.harvard.edu
40940030,"Abreu,Eric",abreu@college.harvard.edu
50904830,"Adario,Marina Joan",marinaadario@college.harvard.edu
20863846,"Afflu,Ernest D",eafflu@college.harvard.edu
80983832,"Ahmed,Nabib",nahmed@college.harvard.edu
80977786,"Aiken,Emily",emilyaiken@college.harvard.edu
50943127,"Alpert,Daniel Fred",alpert@college.harvard.edu
50939502,"Anandappa,Ben Alexander Francisco",benanandappa@college.harvard.edu
90983229,"Arenas,Juan",juanarenas@college.harvard.edu
90943596,"Arif,Osama",oarif@college.harvard.edu
30943783,"Axinn,Tallulah Simone",axinn@college.harvard.edu
90904825,"Beebe-Wang,Nicasia Joanne",nbeebewang@college.harvard.edu
10939860,"Benegas,Maxwell",mbenegas@college.harvard.edu
40983805,"Bieler,Sam",samuelbieler01@college.harvard.edu
30977629,"Binney,Katherine Elizabeth",kbinney@college.harvard.edu
30978005,"Boucher,Nicholas David",nboucher@college.harvard.edu
60939616,"Bryk,William Arthur",williambryk@college.harvard.edu
80944012,"Bujaroski,Filip",fbujaroski@college.harvard.edu
60904057,"Bullard,Kurt Thomas",kurtbullard@college.harvard.edu
80943962,"Casas,Enrique",ecasas@college.harvard.edu
60951519,"Cassels,Lucas I",cassels@college.harvard.edu
20983604,"Chafamo,Daniel",danielchafamo@college.harvard.edu
70978121,"Chalom,Albert Elie",achalom@college.harvard.edu
60978174,"Chandra,Adit",aditchandra@college.harvard.edu
30943643,"Chang,Jeffrey Jiang",jeffreychang@college.harvard.edu
10864259,"Chang,Julie",juliechang@college.harvard.edu
90949705,"Chang,Thomas",tchang@college.harvard.edu
40978178,"Chase,Kyler James",kylerchase@college.harvard.edu
30977521,"Chen,Jamie Taylor",jamiechen@college.harvard.edu
80978006,"Chen,Janet",janetchen@college.harvard.edu
90940643,"Chille,Lisa Gregory",lchille@college.harvard.edu
10871948,"Chipoco-Campoverde,John Luis",jchipoco@college.harvard.edu
90983768,"Cho,Nathanael",ncho@college.harvard.edu
40983724,"Choi,David",kwangmyungchoi@college.harvard.edu
50992365,"Chua,Yao Hui",ychua@college.harvard.edu
30943082,"Chung,Joanna Catherine",joannachung@college.harvard.edu
80939558,"Chung,Olivia Jauwan",oliviachung@college.harvard.edu
90977350,"Civantos,Luke Francisco",lukecivantos@college.harvard.edu
80939582,"Clark,Dylan McDaniel",dylanclark@college.harvard.edu
80977190,"Connors,Patrick Julius",patrickconnors@college.harvard.edu
20983175,"Coonce,Gabe",gcoonce@college.harvard.edu
90907115,"Cornejo,Andres Jesus",andrescornejo@college.harvard.edu
30939492,"Coyle-Nicolas,Alec Joseph",acoylenicolas@college.harvard.edu
60904693,"Cruz,Andreas Alejandro Alfonso",andreascruz@college.harvard.edu
20983183,"Culp,Thomas",culp@college.harvard.edu
60977836,"Dastjerdi,Ali",dastjerdi@college.harvard.edu
30940237,"Davey,Ryan C",ryandavey@college.harvard.edu
30978137,"Deschler,Jack",jdeschler@college.harvard.edu
10943647,"Deuschle,William James",wdeuschle@college.harvard.edu
70904047,"Deveney,Matthew Joseph",mdeveney@college.harvard.edu
80939922,"Devine,Kyle",kyledevine@college.harvard.edu
30943171,"Devuono,Justin",jdevuono@college.harvard.edu
50943666,"Dhara,Raghu Vamsi",rdhara@college.harvard.edu
80940114,"Dhillon,Risham",rishamdhillon@college.harvard.edu
20983728,"Dich,Yong",ydich@college.harvard.edu
50904067,"Divic,Toni",tdivic@college.harvard.edu
60943648,"Ehrenberg,Adam Ethan",aehrenberg@college.harvard.edu
90977342,"Esteller,Juan Vicente",esteller@college.harvard.edu
50983323,"Estrada,Alan",aestrada@college.harvard.edu
70940388,"Evans,Scott",sevans01@college.harvard.edu
70904667,"Evans,Spencer Christian",sevans@college.harvard.edu
30977742,"Famojuro,Ifedayo",ifamojuro@college.harvard.edu
40983465,"Fang,Kristen",kristenfang@college.harvard.edu
10906938,"Farina,Janey Jayne",sfarina@college.harvard.edu
60943397,"Farrell,Dylan Peel",dylanfarrell@college.harvard.edu
90977865,"Fei,Kevin Chao",kevinfei@college.harvard.edu
80977670,"Fertel,Miles",milesfertel@college.harvard.edu
20943343,"Flett,Nicole Ku'ulei-lani",nicoleflett@college.harvard.edu
50943585,"Foster,Kahunui Napua Felicia",kahunuinapuafeliciaf@college.harvard.edu
70871025,"Garber,Ben",bengarber@college.harvard.edu
40940448,"Ge,Jason",jasonge@college.harvard.edu
50983374,"Geffert,Jan",jangeffert@college.harvard.edu
30872142,"Gentner,Lily Frances",lilygentner@college.harvard.edu
80944039,"George,Mario Daniel",mariogeorge@college.harvard.edu
80871716,"Getega,Joshua Obinchu",jgetega01@college.harvard.edu
70943662,"Gibson,David Cecil",dgibson@college.harvard.edu
60952051,"Gibson,David Weijen",davidgibson@college.harvard.edu
50978214,"Giles,Michael",mgiles@college.harvard.edu
20951532,"Gober,Jake Alexander",jgober@college.harvard.edu
40983066,"Goldman,Sam",sgoldman@college.harvard.edu
20992832,"Gologorsky,Rachel",rgologorsky@college.harvard.edu
40983120,"Gong,Elbert",elbertgong@college.harvard.edu
80940599,"Gonzalez,Xavier Xavier",haroldxaviergonzalez@college.harvard.edu
70983176,"Gurakan,Sarp",sarpgurakan@college.harvard.edu
10863600,"Guy,Julian Zaire",jguy@college.harvard.edu
50904261,"Hagan,Dion Jared",dionhagan@college.harvard.edu
40903968,"Hahn,Evan",evanhahn@college.harvard.edu
20940476,"Hanta-Davis,Caetano Andreas",chantadavis@college.harvard.edu
10977169,"Hawke,Nicholas Roger",nhawke@college.harvard.edu
90982966,"Hernandez,Jose Rafael",joserafaelhernandez@college.harvard.edu
70943239,"Hill,Jimmie",jimmiehill@college.harvard.edu
50977684,"Hlebowicz,Thomas Edwin",thlebowicz@college.harvard.edu
20977949,"Hoffmann,Lucas Frederic",lucashoffmann@college.harvard.edu
10977568,"Huang,Matthew Z",matthewhuang@college.harvard.edu
90940457,"Hughes,David Ralph",davidralphhughes@college.harvard.edu
60943265,"Ibarguen,Catalina",cibarguen@college.harvard.edu
40949410,"Jamjoom,Abdulrahman",ajamjoom@college.harvard.edu
70983664,"Janonis,Justas",janonis@college.harvard.edu
80986556,"Jarrett,Chris",christopherjarrett@college.harvard.edu
90983652,"Jemel,Nebras",nebrasjemel@college.harvard.edu
30977467,"Jin,Steven Ge",stevenjin@college.harvard.edu
10977452,"Johns,Mitchell Perry",mitchelljohns@college.harvard.edu
70940108,"Joung,Yuna",joung@college.harvard.edu
50996336,"Jurkowski,Krystian",kjurkowski@college.harvard.edu
90983474,"Kan,Athena",athenakan@college.harvard.edu
80977514,"Karnovsky,Nicholas Jules",nkarnovsky@college.harvard.edu
20983248,"Kelley,Jack",jackkelley@college.harvard.edu
20983264,"Keszler,John Alexander",keszler@college.harvard.edu
60978166,"Khandelwal,Manav Jai",manavkhandelwal@college.harvard.edu
50905071,"Kim,Daniel",dkim03@college.harvard.edu
10977630,"Kim,Erin",erinkim01@college.harvard.edu
80943423,"Kim,Seon Joong",seonjoongkim@college.harvard.edu
90998609,"Kline,Henry",henrykline@college.harvard.edu
80977263,"Kochanek,Nicholas",nkochanek@college.harvard.edu
70983052,"Kosgei,Jonathan",kosgei@college.harvard.edu
60977429,"Kraus,Katrina Danielle",kkraus@college.harvard.edu
20906863,"Lai,Maria Thanhthanh",lai01@college.harvard.edu
60943222,"Lal,Avinash",lal@college.harvard.edu
40978305,"Lane,John Simon",jlane01@college.harvard.edu
10907330,"Law,Charles John",claw@college.harvard.edu
30983939,"Lee,Gha Young",ghayounglee@college.harvard.edu
50952789,"Lee,Kevin Kyumin",kevinlee01@college.harvard.edu
20992840,"Lee,Nathan Young",nlee01@college.harvard.edu
90983938,"Lee,Seung Min (Peter)",seungminlee@college.harvard.edu
80977816,"Leifer,Matthew Julius",matthewleifer@college.harvard.edu
70977397,"Lennon,James Frederick",jlennon@college.harvard.edu
10977193,"Li,Shira",shirali@college.harvard.edu
80983867,"Lim,Changseob",clim01@college.harvard.edu
60983402,"Lin,Alexander",alexanderlin01@college.harvard.edu
70904373,"Lin,Monica",monicalin@college.harvard.edu
50977811,"Liu,Kevin",kevinliu01@college.harvard.edu
50943453,"Lozano,Shayn Austin",shaynlozano@college.harvard.edu
40871519,"Lu,Bowen",bowenlu@college.harvard.edu
50983536,"Lu,Lisa",lisalu@college.harvard.edu
50977609,"Ma,Gordon Vivian",gordonma@college.harvard.edu
90977628,"Macha,Venkata",venkatamacha@college.harvard.edu
70977389,"Mandel,Matthew Joseph",matthewmandel@college.harvard.edu
70871246,"Marinovic,Ana Paula",anapaulamarinovic@college.harvard.edu
90939823,"Martinez,Gabe Steven",gmartinez@college.harvard.edu
60983488,"McEleney,Guy Alexander",guymceleney@college.harvard.edu
60907390,"McNamara,Jake Miles",jmcnamara@college.harvard.edu
70983249,"Mehta,Parth",parthmehta@college.harvard.edu
70837404,"Mehta,Saahil Rahul",saahilmehta@college.harvard.edu
70939479,"Mendez Cabrera,Julio Cesar",mendezcabrera@college.harvard.edu
20977612,"Merchant,Amil",amilmerchant@college.harvard.edu
90982893,"Meza,Erick",erickmeza@college.harvard.edu
30977777,"Miller,David Jack",davidjackmiller@college.harvard.edu
30983793,"Milushev,Rangel",rmilushev@college.harvard.edu
80904428,"Moscoso,Oksana Paola",oksanamoscoso@college.harvard.edu
60983577,"Mulholland,Niamh",niamhmulholland@college.harvard.edu
80943636,"Munoz,Alexander Roth",alexandermunoz@college.harvard.edu
10943140,"Myong,Catherine Rahyun",cmyong@college.harvard.edu
10977932,"Naidoo,Rahul Shah",rahulnaidoo@college.harvard.edu
70983117,"Narayanan,Menaka",menakanarayanan@college.harvard.edu
70904942,"Negron,Thomas Harrington",thomasnegron@college.harvard.edu
30983882,"Ngo,Nicholas",nicholasngo@college.harvard.edu
90983504,"Nguyen Huy,Truong Nam",tnguyenhuy@college.harvard.edu
80977581,"Ninh,Teddy",tninh@college.harvard.edu
70982927,"Obeng-Marnu,Kwadwo",kobengmarnu@college.harvard.edu
10978068,"Oh,Sam",soh02@college.harvard.edu
30939506,"Okezie,Danielle",danielleokezie@college.harvard.edu
60907404,"Okine,Kayi Afivi Pearl",kokine@college.harvard.edu
90983709,"Opara,Michael Kelechi",opara@college.harvard.edu
40903984,"Osuji,Micky",mosuji@college.harvard.edu
60977623,"Park,Marcella Jooyoung",marcellapark@college.harvard.edu
20939788,"Parsons,Bennett Harrison",bennettparsons@college.harvard.edu
30977505,"Pate,Catie Rose",cpate@college.harvard.edu
40939709,"Peed,Alex Sampanes",peed@college.harvard.edu
90977369,"Philip,Neil Jones",philip@college.harvard.edu
10882532,"Plank,Samuel",samuelplank@college.harvard.edu
40907793,"Prasad,Aditya Nuthakki",adityaprasad@college.harvard.edu
10977355,"Putnam,Noah Campbell",noahputnam@college.harvard.edu
70978032,"Rahman,Tamjid Ar",trahman@college.harvard.edu
60978239,"Rao,Angeline",angelinerao@college.harvard.edu
20940549,"Reynolds,Jackson Markward",jacksonreynolds@college.harvard.edu
60908095,"Rienstra,Jacob Dixon",jacobrienstra@college.harvard.edu
30977327,"Rivera,Francisco",frivera@college.harvard.edu
20925493,"Rodowicz,Chris David",crodowicz@college.harvard.edu
80983913,"Ruiz,Mauricio Alejandro",mauricioruiz@college.harvard.edu
10983185,"Sapozhnikov,Brian",briansapozhnikov@college.harvard.edu
20977353,"Sargent,Kyle Gregory",kylesargent@college.harvard.edu
50978125,"Sarkar,Suproteem Kumar",suproteemsarkar@college.harvard.edu
30977459,"Satcher,Harrison Alexander",satcher@college.harvard.edu
60950350,"Schember,Kate Gianna",kschember@college.harvard.edu
80977778,"Schick,Sophia Kyung-Sil",sschick@college.harvard.edu
90977970,"Schiffhauer,Kaitlyn Leigh",kaitlynschiffhauer@college.harvard.edu
20983930,"Schmitt,Billy Andrew",williamschmitt@college.harvard.edu
90940074,"Schugart,Annie",aschugart@college.harvard.edu
10940508,"Scott Jr,Peter M.",petermscott@college.harvard.edu
70939940,"Scott,Katherine H",katherinescott@college.harvard.edu
50977374,"Seong,Daniel Dong Joon",dseong01@college.harvard.edu
60871116,"Shaked,Yoav",yshaked@college.harvard.edu
10978149,"Shen,Elana",elanashen@college.harvard.edu
20977914,"Shen,John Jianwen",jshen@college.harvard.edu
50978192,"Shon,Ila",ilashon@college.harvard.edu
50980065,"Siddiqui,Sariya A",sas8571@mail.harvard.edu
70978113,"Smiles,William Benjamin",wsmiles@college.harvard.edu
40939628,"Smith,Ryan Alan",ryansmith@college.harvard.edu
70983435,"Solai,Sundar",solai@college.harvard.edu
60977925,"Spataru,Stefan",stefanspataru@college.harvard.edu
70977621,"Steeves,Jake",jsteeves@college.harvard.edu
90940589,"Steigerwald Schnall,Julia Calliezandra",jsteigerwaldschnall@college.harvard.edu
10940168,"Steinhaus,Isabel Rose",isabelsteinhaus@college.harvard.edu
60970491,"Stone,Samuel Justin",sstone@mba2017.hbs.edu
10907942,"Stonehill,Archie Ian Harry",stonehill@college.harvard.edu
90977490,"Sudireddy,Sathvik Reddy",ssudireddy@college.harvard.edu
90977571,"Sun,Simon Sihao",ssun@college.harvard.edu
30907361,"Tan,Dylan Eow-Lunn",dylantan@college.harvard.edu
20940271,"Tao,Kenny",ktao@college.harvard.edu
40918620,"Tarantino,Nicholas Angelo",nicholastarantino@college.harvard.edu
80983115,"Teicher,Caroline",cteicher@college.harvard.edu
10907365,"Tenuta,Christina Ann",christinatenuta@college.harvard.edu
30990854,"Thumpasery,Tony",athumpasery@college.harvard.edu
90983512,"Tian,Peter",ptian@college.harvard.edu
20977388,"Timmerman,Eric Stephen",erictimmerman@college.harvard.edu
20983426,"Trujillo,Francisco",trujillo@college.harvard.edu
70977826,"Tylko,Michael John",tylko@college.harvard.edu
10982928,"Ulyanov,Anton",antonulyanov@college.harvard.edu
30943147,"Ungar,Laura",ungar@college.harvard.edu
80912846,"Vafa,Neekon",nvafa@college.harvard.edu
90992821,"Verrey,Jacob",jverrey@college.harvard.edu
40906940,"Vinar,Kendrick James",kendrickvinar@college.harvard.edu
30978056,"Vo,Lisa",lisavo@college.harvard.edu
60982988,"Waddilove,Robbie",darleywaddilove@college.harvard.edu
30939921,"Wagner,Brian Elliott",bwagner@college.harvard.edu
60983712,"Waldorf,Genevieve",genevievewaldorf@college.harvard.edu
70868490,"Wallace,Ryan Charles",ryanwallace@college.harvard.edu
10871891,"Wang,Jack Zhihao",jackli@college.harvard.edu
10982944,"Wang,Jeffrey",jeffwang@college.harvard.edu
30871685,"Wang,Lucian",lucianwang@college.harvard.edu
80863659,"Watters,Nicholas",nwatters01@college.harvard.edu
20904992,"Webb,Matthew Franklin",matthewwebb@college.harvard.edu
90940279,"Wei,Alvin",awei@college.harvard.edu
50943917,"Weist,Fraser",fweist@college.harvard.edu
60940371,"Welborn,Jeremy Davisson",jeremywelborn@college.harvard.edu
40983791,"Wendland,Alexander",awendland@college.harvard.edu
80940556,"Whittaker,Mark Robert",markwhittaker@college.harvard.edu
60977518,"Wolfe,Nathan Philip",nwolfe@college.harvard.edu
90978209,"Wu,Helen Yuerong",helenwu@college.harvard.edu
10907624,"Wu,Mei Yin",mwu01@college.harvard.edu
90943111,"Wu,Tony TianHao",tonywu@college.harvard.edu
80978219,"Xu,Susan Qi",susanxu@college.harvard.edu
30943309,"Yay,Kaan Alp",kaanalpyay@college.harvard.edu
20983906,"Yoon,Kevin Ji Whan",jiwhanyoon@college.harvard.edu
30943880,"Youn,Peter",ryoun@college.harvard.edu
80978235,"Yu,Brian Paul",brianyu@college.harvard.edu
10978211,"Yu,Melissa Amber",melissayu@college.harvard.edu
90978217,"Yu,Phillip",phillipyu@college.harvard.edu
70977303,"Zabcic-Matic,Tomislav Fran",tzabcicmatic@college.harvard.edu
80940203,"Zhang,Christine Hong",christinezhang@college.harvard.edu
60943117,"Zhang,Dennis",denniszhang@college.harvard.edu
30943945,"Zhang,Jesse",jessezhang@college.harvard.edu
80977328,"Zhang,Jesse Tan",jessetanzhang@college.harvard.edu
80986084,"Zhdankin,Dmitry",dmitry.zhdankin@gmail.com
50983501,"Zhong,Jenica",jenicazhong@college.harvard.edu
70943298,"Zhou,Frank",fzhou@college.harvard.edu
10983401,"Zhu,FeiYang",feiyangzhu@college.harvard.edu
30977319,"Zhu,Ted Niandong",tedzhu@college.harvard.edu
30904060,"Zhuang,Danny Xiaolun",danielzhuang@college.harvard.edu
80944047,"Zinzuwadia,Aniket Nayan",azinzuwadia@college.harvard.edu
80943318,"Zlatkova,Maria Victor",zlatkova@college.harvard.edu
40983759,"Zuckerman,Joseph",jzuckerman@college.harvard.edu
