\relax 
\providecommand\hyper@newdestlabel[2]{}
\providecommand\HyperFirstAtBeginDocument{\AtBeginDocument}
\HyperFirstAtBeginDocument{\ifx\hyper@anchor\@undefined
\global\let\oldcontentsline\contentsline
\gdef\contentsline#1#2#3#4{\oldcontentsline{#1}{#2}{#3}}
\global\let\oldnewlabel\newlabel
\gdef\newlabel#1#2{\newlabelxx{#1}#2}
\gdef\newlabelxx#1#2#3#4#5#6{\oldnewlabel{#1}{{#2}{#3}}}
\AtEndDocument{\ifx\hyper@anchor\@undefined
\let\contentsline\oldcontentsline
\let\newlabel\oldnewlabel
\fi}
\fi}
\global\let\hyper@last\relax 
\gdef\HyperFirstAtBeginDocument#1{#1}
\providecommand\HyField@AuxAddToFields[1]{}
\providecommand\HyField@AuxAddToCoFields[2]{}
\catcode 95\active
\@writefile{toc}{\contentsline {section}{\tocsection {}{1}{Introduction}}{1}{section.1}}
\@writefile{toc}{\contentsline {section}{\tocsection {}{2}{Downloading}}{1}{section.2}}
\@writefile{toc}{\contentsline {section}{\tocsection {}{3}{Reminders}}{1}{section.3}}
\@writefile{toc}{\contentsline {section}{\tocsection {}{4}{Part 1: Big Numbers}}{2}{section.4}}
\@writefile{toc}{\contentsline {subsection}{\tocsubsection {}{4.1}{Bignum Implementation}}{2}{subsection.4.1}}
\@writefile{toc}{\contentsline {subsection}{\tocsubsection {}{4.2}{Using your solution}}{3}{subsection.4.2}}
\@writefile{toc}{\contentsline {section}{\tocsection {}{5}{What you need to do}}{4}{section.5}}
\@writefile{toc}{\contentsline {subsection}{\tocsubsection {}{5.1}{Challenge 1: The RSA Cryptosystem}}{5}{subsection.5.1}}
\@writefile{toc}{\contentsline {subsection}{\tocsubsection {}{5.2}{How RSA Works}}{6}{subsection.5.2}}
\@writefile{toc}{\contentsline {subsection}{\tocsubsection {}{5.3}{Your task: Implement RSA}}{7}{subsection.5.3}}
\newlabel{tocindent-1}{0pt}
\newlabel{tocindent0}{0pt}
\newlabel{tocindent1}{17.5pt}
\newlabel{tocindent2}{0pt}
\newlabel{tocindent3}{0pt}
\gdef\minted@oldcachelist{,
  default.pygstyle,
  bw.pygstyle,
  4E34710EE27D24289A593FFF375528C2285E0596C900B48F0F78CAC44E178EBE.pygtex,
  5D247A88FB875BC93507DB7042ECEC7B285E0596C900B48F0F78CAC44E178EBE.pygtex,
  5079FC37BAFE2FB2C319E6FF54099725285E0596C900B48F0F78CAC44E178EBE.pygtex,
  4CBAAFB7051E8082E05A7A67E564C214285E0596C900B48F0F78CAC44E178EBE.pygtex}
\@writefile{toc}{\contentsline {subsection}{\tocsubsection {}{5.4}{Challenge 2: Multiply Faster!}}{9}{subsection.5.4}}
\@writefile{toc}{\contentsline {section}{\tocsection {}{6}{Submit!}}{9}{section.6}}
